{
   "abstract" : "Auth against OAuth2 APIs",
   "author" : [
      "Jan Henning Thorsen <jhthorsen@cpan.org>"
   ],
   "dynamic_config" : 0,
   "generated_by" : "ExtUtils::MakeMaker version 7.44, CPAN::Meta::Converter version 2.150010",
   "license" : [
      "artistic_2"
   ],
   "meta-spec" : {
      "url" : "http://search.cpan.org/perldoc?CPAN::Meta::Spec",
      "version" : 2
   },
   "name" : "Mojolicious-Plugin-OAuth2",
   "no_index" : {
      "directory" : [
         "t",
         "inc"
      ]
   },
   "prereqs" : {
      "build" : {
         "requires" : {}
      },
      "configure" : {
         "requires" : {
            "ExtUtils::MakeMaker" : "0"
         }
      },
      "runtime" : {
         "requires" : {
            "IO::Socket::SSL" : "1.94",
            "Mojolicious" : "7.53"
         }
      },
      "test" : {
         "requires" : {
            "Test::More" : "0.88"
         }
      }
   },
   "release_status" : "stable",
   "resources" : {
      "bugtracker" : {
         "web" : "https://github.com/marcusramberg/Mojolicious-Plugin-OAuth2/issues"
      },
      "homepage" : "https://github.com/marcusramberg/Mojolicious-Plugin-OAuth2",
      "repository" : {
         "type" : "git",
         "url" : "https://github.com/marcusramberg/Mojolicious-Plugin-OAuth2.git",
         "web" : "https://github.com/marcusramberg/Mojolicious-Plugin-OAuth2"
      }
   },
   "version" : "1.59",
   "x_contributors" : [
      "Marcus Ramberg <mramberg@cpan.org>",
      "Jan Henning Thorsen <jhthorsen@cpan.org>"
   ],
   "x_serialization_backend" : "JSON::PP version 4.04"
}
